{
  "title": "Customer Management API Specification",
  "abstract": "This document provides a comprehensive technical specification for the Customer Management API, including RESTful endpoints, data models, security requirements, and integration patterns. The API enables secure management of customer data with support for CRUD operations, search capabilities, and audit logging.",
  "author": "API Development Team",
  "date": "2024-01-15",
  "project": {
    "name": "Customer Management System",
    "version": "2.1.0"
  },
  "introduction": {
    "purpose": "To provide a detailed technical specification for the Customer Management API that will serve as the primary interface for customer data operations across all business applications.",
    "scope": "This specification covers the complete API architecture, including all endpoints, data models, authentication mechanisms, error handling, and integration requirements for the Customer Management System v2.1.",
    "audiences": [
      "Backend developers implementing API endpoints",
      "Frontend developers consuming the API",
      "QA engineers developing test plans",
      "DevOps engineers configuring deployment pipelines",
      "Security engineers reviewing authentication and authorization",
      "Product managers defining feature requirements"
    ]
  },
  "requirements": {
    "functional": [
      {
        "title": "Customer CRUD Operations",
        "priority": "High",
        "description": "The API must support complete Create, Read, Update, and Delete operations for customer records with appropriate validation and business rule enforcement.",
        "acceptanceCriteria": [
          "Create customer with required fields validation",
          "Retrieve customer by ID or email address",
          "Update customer information with conflict detection",
          "Soft delete customer records with audit trail"
        ],
        "dependencies": ["Database schema v2.1", "Validation framework"]
      },
      {
        "title": "Advanced Search and Filtering",
        "priority": "High",
        "description": "Provide flexible search capabilities with multiple filter criteria, pagination, and sorting options.",
        "acceptanceCriteria": [
          "Search customers by name, email, phone, or customer ID",
          "Filter by customer status, registration date, or location",
          "Support pagination with configurable page sizes",
          "Sort results by multiple criteria"
        ],
        "dependencies": ["Search indexing service", "Database optimization"]
      },
      {
        "title": "Audit Trail and Compliance",
        "priority": "Medium",
        "description": "Maintain comprehensive audit logs of all customer data operations for compliance and security monitoring.",
        "acceptanceCriteria": [
          "Log all API requests with user context",
          "Track data changes with before/after values",
          "Maintain immutable audit records",
          "Support audit data retention policies"
        ],
        "dependencies": ["Audit service", "Compliance framework"]
      }
    ],
    "nonFunctional": [
      {
        "category": "Performance",
        "description": "API response time for single customer operations",
        "target": "< 200ms for 95th percentile",
        "measurement": "Response time monitoring with load testing at 1000 concurrent users"
      },
      {
        "category": "Availability",
        "description": "API uptime and availability",
        "target": "99.9% uptime excluding planned maintenance",
        "measurement": "Health check monitoring with alerting"
      },
      {
        "category": "Security",
        "description": "Data encryption and access control",
        "target": "All data encrypted in transit and at rest, OAuth 2.0 authentication",
        "measurement": "Security scanning and penetration testing"
      },
      {
        "category": "Scalability",
        "description": "Concurrent user capacity",
        "target": "Support 5000 concurrent API requests",
        "measurement": "Load testing with performance monitoring",
        "constraints": [
          "Database connection pool limited to 100 connections",
          "Rate limiting at 1000 requests per minute per API key"
        ]
      }
    ]
  },
  "architecture": {
    "overview": "The Customer Management API follows a microservices architecture pattern with RESTful endpoints, implementing a layered architecture with clear separation of concerns. The system uses JWT-based authentication, implements comprehensive input validation, and provides detailed error handling.",
    "components": [
      {
        "name": "API Gateway",
        "type": "Infrastructure",
        "description": "Entry point for all API requests, handles authentication, rate limiting, and request routing",
        "responsibilities": [
          "Request authentication and authorization",
          "Rate limiting and throttling",
          "Request/response logging and monitoring",
          "API versioning and routing"
        ],
        "interfaces": [
          {
            "name": "HTTP REST API",
            "description": "RESTful endpoints for client applications"
          },
          {
            "name": "Service Discovery",
            "description": "Dynamic service registration and discovery"
          }
        ],
        "dependencies": ["Authentication Service", "Customer Service"],
        "configuration": [
          {
            "name": "rate_limit_rpm",
            "description": "Requests per minute limit per API key",
            "default": "1000"
          },
          {
            "name": "jwt_secret_key",
            "description": "JWT token signing secret",
            "default": "env:JWT_SECRET"
          }
        ]
      },
      {
        "name": "Customer Service",
        "type": "Business Logic",
        "description": "Core business logic for customer management operations",
        "responsibilities": [
          "Customer data validation and business rule enforcement",
          "CRUD operations with optimistic locking",
          "Search and filtering logic",
          "Integration with external services"
        ],
        "interfaces": [
          {
            "name": "REST API",
            "description": "HTTP endpoints for customer operations"
          },
          {
            "name": "Message Queue",
            "description": "Asynchronous event publishing"
          }
        ],
        "dependencies": ["Database", "Audit Service", "Email Service"],
        "configuration": [
          {
            "name": "max_page_size",
            "description": "Maximum number of records per page",
            "default": "100"
          },
          {
            "name": "soft_delete_enabled",
            "description": "Enable soft delete for customer records",
            "default": "true"
          }
        ]
      },
      {
        "name": "Database Service",
        "type": "Data Layer",
        "description": "PostgreSQL database with connection pooling and transaction management",
        "responsibilities": [
          "Data persistence and retrieval",
          "Transaction management",
          "Connection pooling",
          "Database schema management"
        ],
        "interfaces": [
          {
            "name": "SQL Interface",
            "description": "SQL queries and transactions"
          }
        ],
        "dependencies": ["PostgreSQL Database"],
        "configuration": [
          {
            "name": "max_connections",
            "description": "Maximum database connections",
            "default": "100"
          },
          {
            "name": "connection_timeout",
            "description": "Connection timeout in seconds",
            "default": "30"
          }
        ]
      }
    ],
    "dataModel": {
      "entities": [
        {
          "name": "Customer",
          "description": "Primary customer entity containing personal and account information",
          "attributes": [
            {
              "name": "id",
              "type": "UUID",
              "description": "Unique customer identifier",
              "constraints": "Primary key, not null"
            },
            {
              "name": "email",
              "type": "VARCHAR(255)",
              "description": "Customer email address",
              "constraints": "Unique, not null, valid email format"
            },
            {
              "name": "firstName",
              "type": "VARCHAR(100)",
              "description": "Customer first name",
              "constraints": "Not null, minimum 1 character"
            },
            {
              "name": "lastName",
              "type": "VARCHAR(100)",
              "description": "Customer last name",
              "constraints": "Not null, minimum 1 character"
            },
            {
              "name": "phoneNumber",
              "type": "VARCHAR(20)",
              "description": "Customer phone number",
              "constraints": "Valid phone format"
            },
            {
              "name": "dateOfBirth",
              "type": "DATE",
              "description": "Customer date of birth",
              "constraints": "Must be at least 13 years ago"
            },
            {
              "name": "status",
              "type": "ENUM",
              "description": "Customer account status",
              "constraints": "Values: ACTIVE, INACTIVE, SUSPENDED, PENDING"
            },
            {
              "name": "createdAt",
              "type": "TIMESTAMP",
              "description": "Record creation timestamp",
              "constraints": "Not null, default current timestamp"
            },
            {
              "name": "updatedAt",
              "type": "TIMESTAMP",
              "description": "Last update timestamp",
              "constraints": "Not null, auto-updated"
            }
          ],
          "relationships": [
            {
              "type": "One-to-Many",
              "target": "Address",
              "description": "Customer can have multiple addresses"
            },
            {
              "type": "One-to-Many",
              "target": "AuditLog",
              "description": "Customer changes are tracked in audit logs"
            }
          ]
        }
      ]
    },
    "technologies": [
      {
        "layer": "API Gateway",
        "name": "Kong",
        "purpose": "API gateway and management",
        "version": "3.4"
      },
      {
        "layer": "Application",
        "name": "Node.js",
        "purpose": "Runtime environment",
        "version": "20.x"
      },
      {
        "layer": "Framework",
        "name": "Express.js",
        "purpose": "Web application framework",
        "version": "4.18"
      },
      {
        "layer": "Database",
        "name": "PostgreSQL",
        "purpose": "Primary data store",
        "version": "15.x"
      },
      {
        "layer": "Cache",
        "name": "Redis",
        "purpose": "Session and data caching",
        "version": "7.x"
      },
      {
        "layer": "Message Queue",
        "name": "RabbitMQ",
        "purpose": "Asynchronous messaging",
        "version": "3.12"
      }
    ]
  },
  "interfaces": [
    {
      "name": "Customer Management API",
      "type": "REST",
      "protocol": "HTTPS",
      "baseUrl": "https://api.company.com/v1",
      "description": "RESTful API for customer data operations",
      "endpoints": [
        {
          "method": "POST",
          "path": "/customers",
          "description": "Create a new customer",
          "parameters": [],
          "requestBody": "{\n  \"email\": \"john.doe@example.com\",\n  \"firstName\": \"John\",\n  \"lastName\": \"Doe\",\n  \"phoneNumber\": \"+1-555-123-4567\",\n  \"dateOfBirth\": \"1990-05-15\",\n  \"addresses\": [\n    {\n      \"type\": \"billing\",\n      \"street\": \"123 Main St\",\n      \"city\": \"Anytown\",\n      \"state\": \"CA\",\n      \"zipCode\": \"12345\",\n      \"country\": \"US\"\n    }\n  ]\n}",
          "responses": [
            {
              "status": "201",
              "description": "Customer created successfully",
              "body": "{\n  \"id\": \"550e8400-e29b-41d4-a716-446655440000\",\n  \"email\": \"john.doe@example.com\",\n  \"firstName\": \"John\",\n  \"lastName\": \"Doe\",\n  \"status\": \"ACTIVE\",\n  \"createdAt\": \"2024-01-15T10:30:00Z\",\n  \"updatedAt\": \"2024-01-15T10:30:00Z\"\n}"
            },
            {
              "status": "400",
              "description": "Invalid request data",
              "body": "{\n  \"error\": \"VALIDATION_ERROR\",\n  \"message\": \"Invalid email address format\",\n  \"details\": [\n    {\n      \"field\": \"email\",\n      \"code\": \"INVALID_FORMAT\",\n      \"message\": \"Email address must be valid\"\n    }\n  ]\n}"
            }
          ]
        },
        {
          "method": "GET",
          "path": "/customers/{id}",
          "description": "Retrieve customer by ID",
          "parameters": [
            {
              "name": "id",
              "type": "string",
              "required": "Yes",
              "description": "Customer UUID",
              "example": "550e8400-e29b-41d4-a716-446655440000"
            }
          ],
          "responses": [
            {
              "status": "200",
              "description": "Customer found",
              "body": "{\n  \"id\": \"550e8400-e29b-41d4-a716-446655440000\",\n  \"email\": \"john.doe@example.com\",\n  \"firstName\": \"John\",\n  \"lastName\": \"Doe\",\n  \"phoneNumber\": \"+1-555-123-4567\",\n  \"status\": \"ACTIVE\",\n  \"createdAt\": \"2024-01-15T10:30:00Z\",\n  \"updatedAt\": \"2024-01-15T10:30:00Z\"\n}"
            },
            {
              "status": "404",
              "description": "Customer not found",
              "body": "{\n  \"error\": \"NOT_FOUND\",\n  \"message\": \"Customer not found\",\n  \"customerId\": \"550e8400-e29b-41d4-a716-446655440000\"\n}"
            }
          ]
        },
        {
          "method": "GET",
          "path": "/customers",
          "description": "Search and list customers with pagination",
          "parameters": [
            {
              "name": "email",
              "type": "string",
              "required": "No",
              "description": "Filter by email address",
              "example": "john@example.com"
            },
            {
              "name": "status",
              "type": "string",
              "required": "No",
              "description": "Filter by customer status",
              "example": "ACTIVE"
            },
            {
              "name": "page",
              "type": "integer",
              "required": "No",
              "description": "Page number (1-based)",
              "example": "1"
            },
            {
              "name": "limit",
              "type": "integer",
              "required": "No",
              "description": "Records per page (max 100)",
              "example": "20"
            }
          ],
          "responses": [
            {
              "status": "200",
              "description": "Customer list retrieved",
              "body": "{\n  \"data\": [\n    {\n      \"id\": \"550e8400-e29b-41d4-a716-446655440000\",\n      \"email\": \"john.doe@example.com\",\n      \"firstName\": \"John\",\n      \"lastName\": \"Doe\",\n      \"status\": \"ACTIVE\"\n    }\n  ],\n  \"pagination\": {\n    \"page\": 1,\n    \"limit\": 20,\n    \"total\": 150,\n    \"pages\": 8\n  }\n}"
            }
          ]
        }
      ]
    }
  ],
  "implementation": {
    "guidelines": [
      "Follow RESTful API design principles",
      "Implement comprehensive input validation",
      "Use meaningful HTTP status codes",
      "Provide detailed error messages with error codes",
      "Implement rate limiting and throttling",
      "Log all requests for monitoring and debugging",
      "Use semantic versioning for API versions"
    ],
    "standards": [
      {
        "category": "Error Handling",
        "language": "javascript",
        "description": "Consistent error response format with structured error details",
        "examples": "// Error response structure\nconst errorResponse = {\n  error: 'VALIDATION_ERROR',\n  message: 'Request validation failed',\n  details: [\n    {\n      field: 'email',\n      code: 'REQUIRED',\n      message: 'Email is required'\n    }\n  ],\n  timestamp: new Date().toISOString(),\n  requestId: req.id\n};"
      },
      {
        "category": "Logging",
        "language": "javascript",
        "description": "Structured logging with correlation IDs and contextual information",
        "examples": "// Request logging middleware\napp.use((req, res, next) => {\n  req.logger = logger.child({\n    requestId: req.id,\n    method: req.method,\n    url: req.url,\n    userAgent: req.get('User-Agent')\n  });\n  \n  req.logger.info('Request started');\n  next();\n});"
      }
    ],
    "errorHandling": {
      "strategy": "The API implements a comprehensive error handling strategy with structured error responses, appropriate HTTP status codes, and detailed error information for debugging while maintaining security by not exposing internal system details.",
      "categories": [
        {
          "name": "Validation Errors",
          "codes": "400-499",
          "description": "Client-side errors including invalid input, authentication failures, and authorization issues",
          "action": "Return detailed validation errors with field-level information"
        },
        {
          "name": "Server Errors",
          "codes": "500-599",
          "description": "Server-side errors including database failures, external service timeouts, and system errors",
          "action": "Log detailed error information, return generic error message to client"
        },
        {
          "name": "Rate Limiting",
          "codes": "429",
          "description": "Request rate limit exceeded",
          "action": "Return retry-after header with rate limit information"
        }
      ]
    }
  },
  "security": {
    "authentication": "The API uses OAuth 2.0 with JWT tokens for authentication. All endpoints require valid JWT tokens except for health check endpoints. Tokens expire after 1 hour and must be refreshed using refresh tokens.",
    "dataProtection": "All data is encrypted in transit using TLS 1.3. Sensitive data is encrypted at rest using AES-256 encryption. PII data is tokenized where possible.",
    "controls": [
      "OAuth 2.0 authentication with JWT tokens",
      "Role-based access control (RBAC)",
      "Rate limiting: 1000 requests per minute per API key",
      "Input validation and sanitization",
      "SQL injection prevention using parameterized queries",
      "HTTPS/TLS 1.3 for all communications",
      "API key rotation every 90 days"
    ]
  },
  "testing": {
    "levels": [
      {
        "name": "Unit Testing",
        "description": "Test individual functions and modules in isolation with comprehensive code coverage",
        "coverage": "90%",
        "tools": ["Jest", "Sinon", "Supertest"]
      },
      {
        "name": "Integration Testing",
        "description": "Test API endpoints with database and external service interactions",
        "coverage": "80%",
        "tools": ["Jest", "Testcontainers", "Postman"]
      },
      {
        "name": "Performance Testing",
        "description": "Load testing to verify response times and concurrent user capacity",
        "coverage": "All critical endpoints",
        "tools": ["Apache JMeter", "Artillery", "K6"]
      }
    ],
    "cases": [
      {
        "name": "Create Customer - Valid Data",
        "objective": "Verify customer creation with all required fields",
        "preconditions": [
          "API server is running",
          "Database is accessible",
          "Valid JWT token available"
        ],
        "steps": [
          "Send POST request to /customers with valid customer data",
          "Include authorization header with JWT token",
          "Verify response status is 201",
          "Verify customer ID is returned in response",
          "Verify customer is created in database"
        ],
        "expectedResult": "Customer is created successfully with 201 status and valid customer ID returned"
      },
      {
        "name": "Get Customer - Invalid ID",
        "objective": "Verify proper error handling for non-existent customer ID",
        "preconditions": [
          "API server is running",
          "Valid JWT token available"
        ],
        "steps": [
          "Send GET request to /customers/{invalid-id}",
          "Include authorization header with JWT token",
          "Verify response status is 404",
          "Verify error message indicates customer not found"
        ],
        "expectedResult": "API returns 404 status with appropriate error message"
      }
    ]
  },
  "deployment": {
    "architecture": "The API is deployed using containerized microservices architecture with Docker containers orchestrated by Kubernetes. The deployment includes load balancing, auto-scaling, and health monitoring.",
    "configuration": "Configuration is managed through environment variables and ConfigMaps in Kubernetes. Secrets are managed using Kubernetes Secrets with encryption at rest.",
    "monitoring": "Comprehensive monitoring using Prometheus for metrics collection, Grafana for visualization, and ELK stack for centralized logging. Health checks are implemented at multiple levels."
  },
  "glossary": [
    {
      "name": "JWT",
      "definition": "JSON Web Token - A compact, URL-safe means of representing claims to be transferred between two parties"
    },
    {
      "name": "CRUD",
      "definition": "Create, Read, Update, Delete - Basic operations for persistent storage"
    },
    {
      "name": "REST",
      "definition": "Representational State Transfer - Architectural style for distributed systems"
    }
  ],
  "references": [
    "REST API Design Best Practices - https://restfulapi.net/",
    "OAuth 2.0 Security Best Practices - RFC 6819",
    "Node.js Security Best Practices - https://nodejs.org/en/docs/guides/security/",
    "PostgreSQL Performance Tuning Guide"
  ]
}